192.168.1.141 - - [04/Dec/2015:16:48:20 +0800] "GET /goform/fuck HTTP/1.1" 200 -
192.168.1.141 - - [04/Dec/2015:16:48:20 +0800] "GET /favicon.ico HTTP/1.1" 200 894
192.168.1.141 - - [04/Dec/2015:16:48:21 +0800] "GET /goform/fuck HTTP/1.1" 200 -
192.168.1.141 - - [04/Dec/2015:16:48:21 +0800] "GET /favicon.ico HTTP/1.1" 200 894
192.168.1.141 - - [04/Dec/2015:16:48:21 +0800] "GET /goform/fuck HTTP/1.1" 200 -
192.168.1.141 - - [04/Dec/2015:16:48:21 +0800] "GET /favicon.ico HTTP/1.1" 200 894
192.168.1.141 - - [04/Dec/2015:16:48:21 +0800] "GET /goform/fuck HTTP/1.1" 200 -
192.168.1.141 - - [04/Dec/2015:16:48:21 +0800] "GET /favicon.ico HTTP/1.1" 200 894
192.168.1.141 - - [04/Dec/2015:16:48:22 +0800] "GET /goform/fuck HTTP/1.1" 200 -
192.168.1.141 - - [04/Dec/2015:16:48:22 +0800] "GET /favicon.ico HTTP/1.1" 200 894
192.168.1.141 - - [04/Dec/2015:16:48:22 +0800] "GET /goform/fuck HTTP/1.1" 200 -
192.168.1.141 - - [04/Dec/2015:16:48:22 +0800] "GET /favicon.ico HTTP/1.1" 200 894
192.168.1.141 - - [04/Dec/2015:16:48:22 +0800] "GET /goform/fuck HTTP/1.1" 200 -
192.168.1.141 - - [04/Dec/2015:16:48:22 +0800] "GET /favicon.ico HTTP/1.1" 200 894
